.......
----------------------------------------------------------------------
Ran 7 tests in 0.003s

OK
Name               Stmts   Miss Branch BrPart  Cover   Missing
--------------------------------------------------------------
Diplomacy.py         105      6     72      4    92%   22->23, 23, 53->exit, 62->exit, 72-75, 113->114, 114
TestDiplomacy.py      38      0      2      1    98%   81->exit
--------------------------------------------------------------
TOTAL                143      6     74      5    93%
