...
----------------------------------------------------------------------
Ran 3 tests in 0.001s

OK
Name               Stmts   Miss Branch BrPart  Cover   Missing
--------------------------------------------------------------
Diplomacy.py          92      2     50      2    97%   134->135, 135-136, 147->151
TestDiplomacy.py      25      0      2      1    96%   86->exit
--------------------------------------------------------------
TOTAL                117      2     52      3    97%
