...........
----------------------------------------------------------------------
Ran 11 tests in 0.002s

OK
Name               Stmts   Miss Branch BrPart  Cover   Missing
--------------------------------------------------------------
Diplomacy.py          52      0     40      0   100%
TestDiplomacy.py      61      0      2      1    98%   115->exit
--------------------------------------------------------------
TOTAL                113      0     42      1    99%

